ST558 - Project 1
…
Factorize_column and convert_census_time_strings are custom functions that return factors and numeric 24-hour times as hhmm, respectively. They are defined along with some helper functions in /scripts/cat_var_mapping_tools.R. We’ll get to that later in this document.

In all of this, we set defaults where appropriate. The user could get results no matter whether any arguments are provided.

fetch_census_data()

Warning: The `x` argument of `as_tibble.matrix()` must have unique column names if
`.name_repair` is omitted as of tibble 2.0.0.
ℹ Using compatibility `.name_repair`.

# A tibble: 6,972 × 5
   PWGTP  AGEP SEX    state  YEAR
   <dbl> <dbl> <fct>  <chr> <dbl>
 1    55    58 Male   02     2022
 2     8    27 Female 02     2022
 3    63    50 Male   02     2022
 4   101    49 Female 02     2022
 5    17    57 Female 02     2022
 6    62    89 Male   02     2022
 7    27    39 Female 02     2022
 8    29    42 Male   02     2022
 9     5    28 Male   02     2022
10    10    16 Male   02     2022
# ℹ 6,962 more rows

fetch_census_data(cat_vars = c("SCHL"), num_vars = c("GRPIP"), geo_vars = c("DIVISION"), geo_sub = "3", years = c(2014, 2017))

# A tibble: 938,248 × 6
   PWGTP GRPIP SCHL                                      DIVISION division  YEAR
   <dbl> <dbl> <fct>                                     <chr>    <chr>    <dbl>
 1    96     0 Some college, but less than 1 year        3        3         2014
 2   103     0 Regular high school diploma               3        3         2014
 3    17     0 1 or more years of college credit, no de… 3        3         2014
 4    19     0 1 or more years of college credit, no de… 3        3         2014
 5   135    12 Bachelor's degree                         3        3         2014
 6    17     0 Regular high school diploma               3        3         2014
 7    60     0 Regular high school diploma               3        3         2014
 8    95     0 Grade 11                                  3        3         2014
 9    71     0 1 or more years of college credit, no de… 3        3         2014
10    64     0 1 or more years of college credit, no de… 3        3         2014
# ℹ 938,238 more rows
…
Testing Everything Together

Suppose we wanted to investigate when and how individuals arrive at work based on their gross rent as percentage of household income over the previous 12 months, using 3 of the most recent available years. We could do the following:

test_tbl_1 <- fetch_census_data(years = c(2019, 2021, 2022), cat_vars = c("JWTRNS"), num_vars = c("GRPIP", "JWAP"))

summary.census(test_tbl_1, c("GRPIP", "JWAP"), c("JWTRNS"))

$`Numeric Variable Summary`
$`Numeric Variable Summary`[[1]]
# A tibble: 20,046 × 10
   PWGTP GRPIP  JWAP JWTRNS    state  YEAR GRPIP_mean GRPIP_sd JWAP_mean JWAP_sd
   <dbl> <dbl> <dbl> <fct>     <chr> <dbl>      <dbl>    <dbl>     <dbl>   <dbl>
 1   275     0  1942 Walked    2      2019       9.09     20.1      471.    673.
 2    54     0   447 Walked    2      2019       9.09     20.1      471.    673.
 3    15     0    NA N/A (not… 2      2019       9.09     20.1      471.    673.
 4     6     0  1242 Walked    2      2019       9.09     20.1      471.    673.
 5    42     0  2317 <NA>      2      2019       9.09     20.1      471.    673.
 6    86     0   717 <NA>      2      2019       9.09     20.1      471.    673.
 7   136     0  2252 <NA>      2      2019       9.09     20.1      471.    673.
 8    21     0   342 Walked    2      2019       9.09     20.1      471.    673.
 9     8     0    NA N/A (not… 2      2019       9.09     20.1      471.    673.
10    34     0    NA N/A (not… 2      2019       9.09     20.1      471.    673.
# ℹ 20,036 more rows
…
We could also look into the spread of ages recorded in 2022 between males and females.

test_tbl <- fetch_census_data(years = c(2022), cat_vars = c("SEX"), num_vars = c("AGEP"))

summary.census(test_tbl, c("AGEP"), c("SEX"))

$`Numeric Variable Summary`
$`Numeric Variable Summary`[[1]]
# A tibble: 6,972 × 7
   PWGTP  AGEP SEX    state  YEAR AGEP_mean AGEP_sd
   <dbl> <dbl> <fct>  <chr> <dbl>     <dbl>   <dbl>
 1    55    58 Male   02     2022      37.0    22.2
 2     8    27 Female 02     2022      37.0    22.2
 3    63    50 Male   02     2022      37.0    22.2
 4   101    49 Female 02     2022      37.0    22.2
 5    17    57 Female 02     2022      37.0    22.2
 6    62    89 Male   02     2022      37.0    22.2
 7    27    39 Female 02     2022      37.0    22.2
 8    29    42 Male   02     2022      37.0    22.2
 9     5    28 Male   02     2022      37.0    22.2
10    10    16 Male   02     2022      37.0    22.2
# ℹ 6,962 more rows
…
